Package Relating to Hospital Episode Intervals • NHSRepisodes
…
Note that {ivs} creates intervals that are right-open meaning they are inclusive on the left (have an opening square bracket [) and exclusive on the right (with a closing a rounded bracket )). Consequently, in our first call to mutate() we added 1 to the end value. This ensures that the full range of dates are considered (e.g. for the first row we want to consider all days from 2020-01-01 to 2020-01-10 not only up until 2020-01-09).

This works great when we only have a small number of ids to group by. However, it becomes noticeably slow for a larger number:

# Creating a larger data set
n <- 125000
id2 <- sample(seq_len(n), size = n * 5, replace = TRUE)
start2 <- as.Date("2020-01-01") + sample.int(365, size = n * 5, replace = TRUE)
end2 <- start2 + sample(1:100, size = n * 5, replace = TRUE)

# creates the object big_dat and shows the first 10 rows as a tibble in the console
(big_dat <- tibble(id = id2, start = start2, end = end2))
#> # A tibble: 625,000 × 3
#>       id start      end       
#>    <int> <date>     <date>    
#>  1 90983 2020-02-07 2020-03-18
#>  2 59640 2020-07-05 2020-08-13
#>  3 29543 2020-04-05 2020-05-28
#>  4 17962 2020-06-07 2020-07-21
#>  5 13032 2020-08-25 2020-09-08
#>  6 94348 2020-05-11 2020-06-07
#>  7  7770 2020-03-18 2020-04-03
#>  8  9570 2020-09-25 2020-12-04
#>  9 86687 2020-11-04 2021-01-09
#> 10 66213 2020-04-09 2020-04-16
#> # ℹ 624,990 more rows
…
fun <- function(s, e) {
    interval <- iv(s, e)
    groups <- iv_groups(interval, abutting = FALSE)
    list(start = iv_start(groups), end = iv_end(groups))
}

system.time(out_dt <- DT[, fun(start, end + 1), by = id])
#>    user  system elapsed 
#>  14.972   0.022  14.984

NHSRepisodes solves this with the merge_episodes() function:

merge_episodes(big_dat)
#> # A tibble: 334,767 × 4
#>       id .interval_number .episode_start .episode_end
#>    <int>            <int> <date>         <date>      
#>  1     1                1 2020-04-16     2020-06-23  
#>  2     2                1 2020-01-12     2020-02-22  
#>  3     2                2 2020-07-22     2020-08-16  
#>  4     2                3 2020-09-27     2021-01-11  
#>  5     3                1 2020-01-06     2020-03-02  
#>  6     3                2 2020-03-08     2020-03-16  
#>  7     3                3 2020-06-05     2020-08-26  
#>  8     4                1 2020-02-05     2020-05-03  
#>  9     4                2 2020-05-19     2020-09-08  
#> 10     5                1 2020-01-14     2020-03-13  
#> # ℹ 334,757 more rows
…
