…
This is great when we only have a small number of ids to group by but is
noticeably slow for a larger number:

``` r
n=125000
id2 <- sample(seq_len(n), size = n * 5, replace = TRUE)
start2 <- as.Date("2020-01-01") + sample.int(365, size = n*5, replace = TRUE)
end2 <- start2 + sample(1:100, size = n*5, replace = TRUE)
(big_dat <- tibble(id=id2, start=start2,end=end2))
#> # A tibble: 625,000 × 3
#>        id start      end       
#>     <int> <date>     <date>    
#>  1  29443 2020-01-22 2020-03-02
#>  2  67394 2020-12-29 2021-01-16
#>  3  13998 2020-08-12 2020-08-13
#>  4  67419 2020-02-07 2020-04-13
#>  5  14394 2020-05-25 2020-08-06
#>  6  32913 2020-06-09 2020-09-10
#>  7 110736 2020-05-05 2020-07-09
#>  8 105723 2020-10-29 2021-01-02
#>  9  58685 2020-01-31 2020-04-02
#> 10  49374 2020-08-25 2020-09-10
#> # … with 624,990 more rows
…
``` r
    DT <- as.data.table(big_dat)
    DT[, interval:=iv(start, end+1)]
#> Error in `[.data.table`(DT, , `:=`(interval, iv(start, end + 1))): Supplied 2 items to be assigned to 625000 items of column 'interval'. If you wish to 'recycle' the RHS please use rep() to make this intent clear to readers of your code.
```

***NHSRepisodes*** solves this with the `merge_episodes()` function:

``` r
merge_episodes(big_dat)
#> # A tibble: 335,911 × 4
#>       id .interval_number .episode_start .episode_end
#>    <int>            <int> <date>         <date>      
#>  1     1                1 2020-02-25     2020-05-31  
#>  2     1                2 2020-10-27     2021-02-14  
#>  3     2                1 2020-03-09     2020-03-31  
#>  4     2                2 2020-07-14     2021-01-06  
#>  5     3                1 2020-04-17     2020-12-09  
#>  6     4                1 2020-01-21     2020-03-29  
#>  7     4                2 2020-09-04     2020-11-23  
#>  8     5                1 2020-03-07     2020-06-12  
#>  9     5                2 2020-06-22     2020-09-08  
#> 10     5                3 2020-12-16     2020-12-19  
#> # … with 335,901 more rows
…
all.equal(out, select(out2, id, interval))
#> [1] TRUE
```

We also provide another function `add_parent_interval()` that associates
the the minimum spanning interval with each observation without reducing
to the unique values:

``` r
add_parent_interval(big_dat)
#> # A tibble: 625,000 × 6
#>       id start      end        .parent_start .parent_end .interval_number
#>    <int> <date>     <date>     <date>        <date>                 <int>
#>  1     1 2020-02-25 2020-05-31 2020-02-25    2020-05-31                 1
#>  2     1 2020-03-25 2020-05-14 2020-02-25    2020-05-31                 1
#>  3     1 2020-04-24 2020-05-12 2020-02-25    2020-05-31                 1
#>  4     1 2020-10-27 2020-12-15 2020-10-27    2020-12-27                 2
#>  5     1 2020-10-30 2020-12-27 2020-10-27    2021-02-14                 2
#>  6     1 2020-12-26 2021-02-14 2020-10-27    2021-02-14                 2
#>  7     2 2020-03-09 2020-03-31 2020-03-09    2020-03-31                 1
#>  8     2 2020-07-14 2020-10-16 2020-07-14    2020-12-17                 2
#>  9     2 2020-10-02 2020-12-17 2020-07-14    2021-01-06                 2
#> 10     2 2020-10-25 2021-01-06 2020-07-14    2021-01-06                 2
#> # … with 624,990 more rows
```
